…
``` r
joined_blast_data_metadata %>%
  filter(sscinames %in% low_bitscore) %>%
  group_by(sscinames) %>%
  tally() %>%
  arrange(desc(n))
```

    ## # A tibble: 74 x 2
    ##    sscinames                                        n
    ##    <fct>                                        <int>
    ##  1 Solemya pervernicosa gill symbiont            2372
    ##  2 unidentified bacterium                         420
    ##  3 Cardiobacterium sp. feline oral taxon 346      101
    ##  4 Lupinus angustiflorus                           92
    ##  5 Alphaproteobacteria bacterium                   42
    ##  6 Anaeroplasma abactoclasticum                    35
    ##  7 bacterium endosymbiont of Onthophagus Taurus    35
    ##  8 Ruminococcus sp.                                33
    ##  9 Treubaria triappendiculata                      16
    ## 10 bacterium WH3-2                                 14
    ## # ... with 64 more rows
…
